code.utf8
…
Number of authors

authors <- articles %>% 
  gather(author, name, 7:22) %>% 
  select(author, name) %>% 
  filter(name != "NA") %>% 
  group_by(name) %>% 
  tally(sort = T) 

There were 498 unique authors in the collection of 123 indexed articles. Let’s see the list of authors and a frequency plot for authors who have published at least four articles.

authors

## # A tibble: 498 x 2
##    name                n
##    <chr>           <int>
##  1 Ward TJ            29
##  2 O’Donnell K        13
##  3 Corby Kistler H    12
##  4 Del Ponte EM       11
##  5 Waalwijk C          9
##  6 Xu J                9
##  7 van der Lee T       8
##  8 Chulze SN           7
##  9 Lee T               7
## 10 Tessmann DJ         7
## # ... with 488 more rows
…
names(stopwords_pt) <- "word"

words2 <- words %>%
  anti_join(stopwords_pt) %>%
  anti_join(stop_words) # this is a list of English stopwords from the tidytext pkg

## Joining, by = "word"

## Joining, by = "word"

words2 %>%
    count(word) %>%
  mutate(word = reorder(word, n))

## # A tibble: 389 x 2
##    word       n
##    <fct>  <int>
##  1 09         1
##  2 1          1
##  3 10         1
##  4 15         3
##  5 15adon     1
##  6 1984       1
##  7 2          1
##  8 2008       1
##  9 2009       2
## 10 3          1
## # ... with 379 more rows
…
Within an authorship network, co-authors (present in a same article) are linked together. Authors from this articles can be connected to authors from other articles whenever they appear together. Therefore, two articles are linked by a common author. Each author is then considered a node in the network and the connections between them are the edges or links. There are several statistics to calculate in a network analysis.

For now, let’s visualize the authorship network and also the community structure which was defined via a function that tries to find densely connected subgraphs, also called communities. We will use a random walk algorithm for determining the communities. The idea is that short random walks tend to stay in the same community. In the network below, there are 15 communities or subgraphs which are represented by the colors.

# igraph
library(igraph)
net=graph.edgelist(as.matrix(author_edge_list), directed=FALSE)

degree <- enframe(degree(net))

degree %>% 
  arrange(-value)

## # A tibble: 498 x 2
##    name            value
##    <chr>           <dbl>
##  1 Ward TJ           190
##  2 O’Donnell K        85
##  3 Corby Kistler H    77
##  4 Waalwijk C         73
##  5 Xu J               68
##  6 van der Lee T      63
##  7 Del Ponte EM       61
##  8 Zhang H            53
##  9 Lee T              53
## 10 Chen W             47
## # ... with 488 more rows
…
articles %>% 
  select(115:128) %>% 
  gather(host, value) %>% 
  filter(value != "NA") %>% 
  tabyl(value) %>% 
  arrange(-n) %>% 
  tibble()

## # A tibble: 45 x 3
##    value           n percent
##    <chr>       <dbl>   <dbl>
##  1 Wheat          71 0.348  
##  2 Maize          33 0.162  
##  3 Barley         29 0.142  
##  4 Rice           12 0.0588 
##  5 Soybean         8 0.0392 
##  6 Oat             6 0.0294 
##  7 Durum wheat     3 0.0147 
##  8 Soil            3 0.0147 
##  9 Rye             2 0.00980
## 10 Sugar beet      2 0.00980
## # ... with 35 more rows

fgsc <- readxl::read_excel("data/fgsc-dat-clean.xlsx")
fgsc

## # A tibble: 16,273 x 12
##    `Collection cod~ Host  Country  Year Latitude Longitude FGSC  TRI_genotype
##    <chr>            <chr> <chr>   <dbl>    <dbl>     <dbl> <chr> <chr>       
##  1 07Tr001          Wheat Brazil   2007    -28.0     -53.4 F. g~ 15-ADON     
##  2 07Tr002          Wheat Brazil   2007    -28.0     -53.4 F. g~ 15-ADON     
##  3 07Tr003          Wheat Brazil   2007    -28.0     -53.4 F. g~ 15-ADON     
##  4 07Tr004          Wheat Brazil   2007    -28.0     -53.4 F. g~ 15-ADON     
##  5 07Tr005          Wheat Brazil   2007    -28.0     -53.4 F. g~ 15-ADON     
##  6 07Tr006          Wheat Brazil   2007    -28.0     -53.4 F. g~ 15-ADON     
##  7 07Tr007          Wheat Brazil   2007    -28.0     -53.4 F. g~ 15-ADON     
##  8 07Tr008          Wheat Brazil   2007    -28.0     -53.4 F. g~ 15-ADON     
##  9 07Tr009          Wheat Brazil   2007    -28.0     -53.4 F. g~ 15-ADON     
## 10 07Tr010          Wheat Brazil   2007    -28.0     -53.4 F. g~ 15-ADON     
## # ... with 16,263 more rows, and 4 more variables: Pub1 <chr>, Pub2 <lgl>,
## #   Pub3 <lgl>, FGSC2 <chr>
…
