data.utf8
…
Let’s now combine everything in a single dataframe.

fgsc2 <- rbind(s1, s2, s3, s4, s5, s6, s7, s8, s9, s10, s11, s12, s13, s14, s15, s16, s19, s20, s21, s22, s23, s24, s25, s26, s27, s28, s29, s30, s31, s32, s33, s34, s35, s36, s37, s38, s39, s40, s41, s42, s43, s44, s45, s46, s47, s48, s49, s50, s51, s52, s53, s54, s55, s56, s57, s58, s59, s60, s61, s62, s63, s64, s65, s66, s67, s68, s69, s70, s71, s72, s73, s74, s75, s76, s77, s78, s79, s80, s81, s82, s83, s84, s85, s86, s87, s88, s89, s90, s91, s92, s93, s94, s95, s96, s97, s98)

All strains are georeferenced by lat and long for its exact or approximated location of origin. For many cases, when the exact location was unknown, the centroid of the municipality was used. In the latter case, there will be overlap of the points when mapping. Let’s add some random noise in the lat and long of all records using the jitter function. This will allow to visualize the individual points, but with the sacrifice of chaning the exact location. For the scale that is being used, this is not a major problem.

Since we do not need all variables, let’s make a selection and work with a smaller set. Se use the select function of the dplyr package. The eleven variables were selected by their position in the dataframe and reorderd.

library(tidyverse)
fgsc <- fgsc2 %>% select(c(13,2,6,7, 8,9, 10, 14, 19, 20, 21))
fgsc

## # A tibble: 16,273 x 11
##    `Collection cod~ Host  Country Year  Latitude Longitude FGSC  TRI_genotype
##    <chr>            <chr> <chr>   <chr>    <dbl>     <dbl> <chr> <chr>       
##  1 07Tr001          Wheat Brazil  2007     -28.0     -53.4 F. g~ 15-ADON     
##  2 07Tr002          Wheat Brazil  2007     -28.0     -53.4 F. g~ 15-ADON     
##  3 07Tr003          Wheat Brazil  2007     -28.0     -53.4 F. g~ 15-ADON     
##  4 07Tr004          Wheat Brazil  2007     -28.0     -53.4 F. g~ 15-ADON     
##  5 07Tr005          Wheat Brazil  2007     -28.0     -53.4 F. g~ 15-ADON     
##  6 07Tr006          Wheat Brazil  2007     -28.0     -53.4 F. g~ 15-ADON     
##  7 07Tr007          Wheat Brazil  2007     -28.0     -53.4 F. g~ 15-ADON     
##  8 07Tr008          Wheat Brazil  2007     -28.0     -53.4 F. g~ 15-ADON     
##  9 07Tr009          Wheat Brazil  2007     -28.0     -53.4 F. g~ 15-ADON     
## 10 07Tr010          Wheat Brazil  2007     -28.0     -53.4 F. g~ 15-ADON     
## # ... with 16,263 more rows, and 3 more variables: Pub1 <chr>, Pub2 <chr>,
## #   Pub3 <chr>
…
library(writexl)
write_xlsx(fgsc, "data/fgsc-dat-clean.xlsx")

Study level dataset

Finally, we will import data from a second spreadsheet where each row represents a study and the columns are the variables associated with each of them. The file is stored in a google sheet. We will use the gsheet package for this task.

articles <- gsheet::gsheet2tbl('https://docs.google.com/spreadsheets/d/1rAC_U5upuDPHCSLi9kieb4R5tztHVJGW84aQOf6z7Lk/edit?usp=sharing')

articles

## # A tibble: 123 x 129
##    article_ID source citation `author_e-mail` DOI   title `author 1` `author 2`
##         <dbl> <chr>  <chr>    <chr>           <chr> <chr> <chr>      <chr>     
##  1          1 Author Astolfi~ delponte@ufv.br 10.1~ Gene~ Astolfi P  Reynoso MM
##  2          2 Author Machado~ delponte@ufv.br 10.1~ Firs~ Machado FJ Möller PA 
##  3          3 Author Machado~ delponte@ufv.br 10.1~ Diff~ Machado FJ Nicolli CP
##  4          4 Author Scoz et~ delponte@ufv.br 10.1~ Tric~ Scoz LB    Astolfi P 
##  5          5 Author Castaña~ stenglein@faa.~ 10.1~ Spec~ Castañare~ Dinolfo M 
##  6          6 Author Gomes e~ delponte@ufv.br 10.1~ Spec~ Gomes LB   Ward TJ   
##  7          7 Author Del Pon~ delponte@ufv.br 10.1~ Regi~ Del Ponte~ Spolti P  
##  8          8 Author Kuhnem ~ delponte@ufv.br 10.1~ Comp~ Kuhnem PR  Ward TJ   
##  9          9 Author Pan et ~ dpan@fig.edu.uy 10.4~ Popu~ Pan D      Mionetto A
## 10         10 Author Bec et ~ vaillan@uky.edu 10.1~ Char~ Bec S      Ward TJ   
## # ... with 113 more rows, and 121 more variables: `author 3` <chr>, `author
## #   4` <chr>, `author 5` <chr>, `author 6` <chr>, `author 7` <chr>, `author
## #   8` <chr>, `author 9` <chr>, `author 10` <chr>, `author 11` <chr>, `author
## #   12` <chr>, `author 13` <chr>, `author 14` <chr>, `author 15` <chr>, `author
## #   16` <chr>, journal_name <chr>, vol <dbl>, num <chr>, pages <chr>,
## #   year <dbl>, category_jcr <chr>, IF <dbl>, n_citations <dbl>,
## #   country_1 <chr>, country_2 <chr>, country_3 <chr>, country_4 <chr>,
## #   country_5 <chr>, country_6 <chr>, n_isolates <dbl>, Faca <dbl>, Faet <dbl>,
## #   Fasi <dbl>, Faus <dbl>, Fboo <dbl>, FbooXFgra <dbl>, Fbra <dbl>,
…
